{
  "3.3.0": "https://gitlab.com/liftric/opencv-ios/-/raw/master/releases/opencv-ios-3.3.0.zip",
  "3.4.1": "https://gitlab.com/liftric/opencv-ios/-/raw/master/releases/opencv-ios-3.4.1.zip",
  "3.4.2": "https://gitlab.com/liftric/opencv-ios/-/raw/master/releases/opencv-ios-3.4.2.zip"
}
